IF + ID + EX + MEM + WB/4300lab1a.sim/sim_1/behav/xsim/pipeline_top_tb.vcd
$date
   Mon May 12 15:36:29 2025
$end

$version
  2023.2
  $dumpfile ("pipeline_top_tb.vcd") 
$end

$timescale
  1ps
$end

$scope module pipeline_top_tb $end
$var reg 1 ! clk $end
$var reg 1 " reset $end
$var wire 32 # current_pc [31:0] $end
$var wire 32 $ if_id_ir [31:0] $end
$var wire 32 % if_id_npc [31:0] $end
$var wire 32 & id_ex_npc [31:0] $end
$var wire 32 ' regData1 [31:0] $end
$var wire 32 ( regData2 [31:0] $end
$var wire 32 ) signExt [31:0] $end
$var wire 5 * rt [4:0] $end
$var wire 5 + rd [4:0] $end
$var wire 9 , control [8:0] $end
$var wire 32 - ex_mem_pc_branch [31:0] $end
$var wire 1 . ex_mem_zero $end
$var wire 32 / ex_mem_alu_result [31:0] $end
$var wire 32 0 ex_mem_write_data [31:0] $end
$var wire 5 1 ex_mem_write_reg [4:0] $end
$var wire 32 2 mem_wb_alu_result [31:0] $end
$var wire 32 3 mem_wb_mem_read_data [31:0] $end
$var wire 5 4 mem_wb_write_reg [4:0] $end
$var wire 1 5 regwrite_wb $end
$var wire 5 6 write_reg_wb [4:0] $end
$var wire 32 7 write_data_wb [31:0] $end
$scope module dut $end
$var wire 1 8 clk $end
$var wire 1 9 reset $end
$var wire 32 # current_pc [31:0] $end
$var wire 32 $ if_id_ir [31:0] $end
$var wire 32 % if_id_npc [31:0] $end
$var wire 32 & id_ex_npc [31:0] $end
$var wire 32 ' regData1 [31:0] $end
$var wire 32 ( regData2 [31:0] $end
$var wire 32 ) signExt [31:0] $end
$var wire 5 * rt [4:0] $end
$var wire 5 + rd [4:0] $end
$var wire 9 , control [8:0] $end
$var wire 32 - ex_mem_pc_branch [31:0] $end
$var wire 1 . ex_mem_zero $end
$var wire 32 / ex_mem_alu_result [31:0] $end
$var wire 32 0 ex_mem_write_data [31:0] $end
$var wire 5 1 ex_mem_write_reg [4:0] $end
$var wire 32 2 mem_wb_alu_result [31:0] $end
$var wire 32 3 mem_wb_mem_read_data [31:0] $end
$var wire 5 4 mem_wb_write_reg [4:0] $end
$var wire 1 : PCSrc $end
$var wire 32 ; branch_target [31:0] $end
$var wire 32 < instr [31:0] $end
$var wire 32 = npc [31:0] $end
$var wire 2 > wb_ctl [1:0] $end
$var wire 3 ? m_ctl [2:0] $end
$var wire 2 @ ex_ctl [1:0] $end
$var wire 1 A id_ex_alu_src $end
$var wire 1 B id_ex_reg_dst $end
$var wire 2 C ex_mem_wb_ctl [1:0] $end
$var wire 3 D ex_mem_m_ctl [2:0] $end
$var wire 2 E mem_wb_wb_ctl [1:0] $end
$scope module IF_STAGE $end
$var wire 1 8 clk $end
$var wire 1 9 reset $end
$var wire 1 : PCSrc $end
$var wire 32 ; branch_target [31:0] $end
$var wire 32 # current_pc [31:0] $end
$var wire 32 < if_id_ir [31:0] $end
$var wire 32 = if_id_npc [31:0] $end
$var wire 32 F pc_next [31:0] $end
$var wire 32 G pc_current [31:0] $end
$var wire 32 H npc_candidate [31:0] $end
$var wire 32 I instruction [31:0] $end
$scope module PC $end
$var wire 1 8 clk $end
$var wire 1 9 reset $end
$var wire 32 F next_pc [31:0] $end
$var reg 32 J pc [31:0] $end
$upscope $end
$scope module INCR $end
$var wire 32 G in [31:0] $end
$var wire 32 H out [31:0] $end
$upscope $end
$scope module MUX $end
$var wire 32 H a [31:0] $end
$var wire 32 ; b [31:0] $end
$var wire 1 : sel $end
$var wire 32 F y [31:0] $end
$upscope $end
$scope module IM $end
$var wire 7 K addr [8:2] $end
$var wire 32 I instruction [31:0] $end
$var integer 32 L i [31:0] $end
$upscope $end
$scope module IF_ID $end
$var wire 1 8 clk $end
$var wire 1 9 reset $end
$var wire 32 H npc_in [31:0] $end
$var wire 32 I ir_in [31:0] $end
$var reg 32 M npc_out [31:0] $end
$var reg 32 N ir_out [31:0] $end
$upscope $end
$upscope $end
$scope module ID_STAGE $end
$var wire 1 8 clk $end
$var wire 1 9 reset $end
$var wire 32 = npc [31:0] $end
$var wire 32 < instr [31:0] $end
$var wire 32 & id_ex_npc [31:0] $end
$var wire 32 ' regData1 [31:0] $end
$var wire 32 ( regData2 [31:0] $end
$var wire 32 ) signExt [31:0] $end
$var wire 5 * rt [4:0] $end
$var wire 5 + rd [4:0] $end
$var wire 9 , control [8:0] $end
$var wire 6 O opcode [5:0] $end
$var wire 5 P rs [4:0] $end
$var wire 5 Q rt_field [4:0] $end
$var wire 5 R rd_field [4:0] $end
$var wire 16 S immediate [15:0] $end
$var wire 9 T control_signals [8:0] $end
$var wire 32 U readData1 [31:0] $end
$var wire 32 V readData2 [31:0] $end
$var wire 32 W imm_ext [31:0] $end
$scope module CU $end
$var wire 6 O opcode [5:0] $end
$var reg 9 X control [8:0] $end
$upscope $end
$scope module RF $end
$var wire 1 8 clk $end
$var wire 1 Y regWrite $end
$var wire 5 P readReg1 [4:0] $end
$var wire 5 Q readReg2 [4:0] $end
$var wire 5 Z writeReg [4:0] $end
$var wire 32 [ writeData [31:0] $end
$var wire 32 U readData1 [31:0] $end
$var wire 32 V readData2 [31:0] $end
$var integer 32 \ i [31:0] $end
$upscope $end
$scope module SE $end
$var wire 16 S imm [15:0] $end
$var wire 32 W imm_ext [31:0] $end
$upscope $end
$scope module ID_EX $end
$var wire 1 8 clk $end
$var wire 1 9 reset $end
$var wire 32 = npc_in [31:0] $end
$var wire 32 U regData1_in [31:0] $end
$var wire 32 V regData2_in [31:0] $end
$var wire 32 W signExt_in [31:0] $end
$var wire 5 Q rt_in [4:0] $end
$var wire 5 R rd_in [4:0] $end
$var wire 9 T control_in [8:0] $end
$var reg 32 ] npc_out [31:0] $end
$var reg 32 ^ regData1_out [31:0] $end
$var reg 32 _ regData2_out [31:0] $end
$var reg 32 ` signExt_out [31:0] $end
$var reg 5 a rt_out [4:0] $end
$var reg 5 b rd_out [4:0] $end
$var reg 9 c control_out [8:0] $end
$upscope $end
$upscope $end
$scope module EX_STAGE $end
$var wire 1 8 clk $end
$var wire 1 9 reset $end
$var wire 2 @ id_ex_alu_op [1:0] $end
$var wire 1 A id_ex_alu_src $end
$var wire 1 B id_ex_reg_dst $end
$var wire 32 & id_ex_pc_add4 [31:0] $end
$var wire 32 ' id_ex_read_data1 [31:0] $end
$var wire 32 ( id_ex_read_data2 [31:0] $end
$var wire 32 ) id_ex_sign_ext [31:0] $end
$var wire 5 * id_ex_rt [4:0] $end
$var wire 5 + id_ex_rd [4:0] $end
$var wire 6 d id_ex_funct [5:0] $end
$var wire 2 > id_ex_wb_ctl [1:0] $end
$var wire 3 ? id_ex_m_ctl [2:0] $end
$var wire 2 C ex_mem_wb_ctl [1:0] $end
$var wire 3 D ex_mem_m_ctl [2:0] $end
$var wire 32 - ex_mem_pc_branch [31:0] $end
$var wire 1 . ex_mem_zero $end
$var wire 32 / ex_mem_alu_result [31:0] $end
$var wire 32 0 ex_mem_write_data [31:0] $end
$var wire 5 1 ex_mem_write_reg [4:0] $end
$var wire 3 e alu_ctl_signal [2:0] $end
$var wire 32 f alu_operand_b [31:0] $end
$var wire 32 g alu_result [31:0] $end
$var wire 1 h alu_zero $end
$var wire 5 i dest_reg [4:0] $end
$var wire 32 j branch_target [31:0] $end
$scope module alu_ctrl $end
$var wire 2 @ alu_op [1:0] $end
$var wire 6 d funct [5:0] $end
$var reg 3 k alu_control [2:0] $end
$upscope $end
$scope module mux_alu_src $end
$var wire 32 ( a [31:0] $end
$var wire 32 ) b [31:0] $end
$var wire 1 A sel $end
$var wire 32 f y [31:0] $end
$upscope $end
$scope module alu $end
$var wire 32 ' a [31:0] $end
$var wire 32 f b [31:0] $end
$var wire 3 e alu_control [2:0] $end
$var reg 32 l result [31:0] $end
$var wire 1 h zero $end
$upscope $end
$scope module mux_reg_dst $end
$var wire 5 * a [4:0] $end
$var wire 5 + b [4:0] $end
$var wire 1 B sel $end
$var wire 5 i y [4:0] $end
$upscope $end
$scope module EX_MEM $end
$var wire 1 8 clk $end
$var wire 1 9 reset $end
$var wire 2 > ex_mem_wb_ctl_in [1:0] $end
$var wire 3 ? ex_mem_m_ctl_in [2:0] $end
$var wire 32 j ex_mem_pc_branch_in [31:0] $end
$var wire 1 h ex_mem_zero_in $end
$var wire 32 g ex_mem_alu_result_in [31:0] $end
$var wire 32 ( ex_mem_write_data_in [31:0] $end
$var wire 5 i ex_mem_write_reg_in [4:0] $end
$var reg 2 m ex_mem_wb_ctl_out [1:0] $end
$var reg 3 n ex_mem_m_ctl_out [2:0] $end
$var reg 32 o ex_mem_pc_branch_out [31:0] $end
$var reg 1 p ex_mem_zero_out $end
$var reg 32 q ex_mem_alu_result_out [31:0] $end
$var reg 32 r ex_mem_write_data_out [31:0] $end
$var reg 5 s ex_mem_write_reg_out [4:0] $end
$upscope $end
$upscope $end
$scope module MEM_STAGE $end
$var wire 1 8 clk $end
$var wire 1 9 reset $end
$var wire 2 C ex_mem_wb_ctl [1:0] $end
$var wire 3 D ex_mem_m_ctl [2:0] $end
$var wire 1 . ex_mem_zero $end
$var wire 32 / ex_mem_alu_result [31:0] $end
$var wire 32 0 ex_mem_write_data [31:0] $end
$var wire 5 1 ex_mem_write_reg [4:0] $end
$var wire 32 - ex_mem_pc_branch [31:0] $end
$var wire 1 : PCSrc $end
$var wire 32 ; branch_target [31:0] $end
$var wire 2 E mem_wb_wb_ctl [1:0] $end
$var wire 32 2 mem_wb_alu_result [31:0] $end
$var wire 32 3 mem_wb_mem_read_data [31:0] $end
$var wire 5 4 mem_wb_write_reg [4:0] $end
$var wire 1 t branch $end
$var wire 1 u memread $end
$var wire 1 v memwrite $end
$var wire 1 w zero $end
$var wire 32 x read_data [31:0] $end
$scope module branch_and $end
$var wire 1 t a $end
$var wire 1 w b $end
$var wire 1 : y $end
$upscope $end
$scope module data_mem_block $end
$var wire 1 8 clk $end
$var wire 1 u memread $end
$var wire 1 v memwrite $end
$var wire 32 / addr [31:0] $end
$var wire 32 0 writedata [31:0] $end
$var reg 32 y readdata [31:0] $end
$var integer 32 z i [31:0] $end
$upscope $end
$scope module mem_wb_latch $end
$var wire 1 8 clk $end
$var wire 1 9 reset $end
$var wire 2 C mem_wb_wb_ctl_in [1:0] $end
$var wire 32 / mem_wb_alu_result_in [31:0] $end
$var wire 32 x mem_wb_mem_read_data_in [31:0] $end
$var wire 5 1 mem_wb_write_reg_in [4:0] $end
$var reg 2 { mem_wb_wb_ctl_out [1:0] $end
$var reg 32 | mem_wb_alu_result_out [31:0] $end
$var reg 32 } mem_wb_mem_read_data_out [31:0] $end
$var reg 5 ~ mem_wb_write_reg_out [4:0] $end
$upscope $end
$upscope $end
$upscope $end
$scope module WB_STAGE $end
$var wire 2 !! mem_wb_wb_ctl [1:0] $end
$var wire 32 3 mem_wb_mem_read_data [31:0] $end
$var wire 32 2 mem_wb_alu_result [31:0] $end
$var wire 5 4 mem_wb_write_reg [4:0] $end
$var wire 1 5 regwrite_wb $end
$var wire 5 6 write_reg_wb [4:0] $end
$var wire 32 7 write_data_wb [31:0] $end
$var wire 1 "! regwrite $end
$var wire 1 #! memtoreg $end
$upscope $end
$upscope $end
$enddefinitions $end

#0
$dumpvars
0!
b0 !!
1"
0"!
b0 #
0#!
b0 $
b0 %
b0 &
b0 '
b0 (
b0 )
b0 *
b0 +
b0 ,
b0 -
0.
b0 /
b0 0
b0 1
b0 2
b0 3
b0 4
05
b0 6
b0 7
08
19
0:
b0 ;
b0 <
b0 =
b0 >
b0 ?
b0 @
0A
0B
b0 C
b0 D
b0 E
b100 F
b0 G
b100 H
b1000110000000010101010 I
b0 J
b0 K
b10000000 L
b0 M
b0 N
b0 O
b0 P
b0 Q
b0 R
b0 S
b100001100 T
b0 U
b0 V
b0 W
b100001100 X
0Y
b0 Z
b0 [
b100000 \
b0 ]
b0 ^
b0 _
b0 `
b0 a
b0 b
b0 c
b0 d
b10 e
b0 f
b0 g
1h
b0 i
b0 j
b10 k
b0 l
b0 m
b0 n
b0 o
0p
b0 q
b0 r
b0 s
0t
0u
0v
0w
b0 x
b0 y
b10000000 z
b0 {
b0 |
b0 }
b0 ~
$end

#5000
1!
18

#10000
0!
0"
08
09

#15000
1!
b0 !!
1"!
b100 #
b1000110000000010101010 $
b1000 %
b100001100 ,
1.
15
18
b1000110000000010101010 <
b1000 =
b10 >
b11 @
b1000 F
b100 G
b1000 H
b10000011001010100001100100001 I
b100 J
b1 K
b1000 M
b1000110000000010101010 N
b1 P
b11 Q
b10101010 S
b1 U
b11 V
b10101010 W
b100001100 c
b101010 d
1p
1w

#20000
0!
08

#25000
1!
b1000 #
b10000011001010100001100100001 $
b1100 %
b1000 &
b1 '
b11 (
b10101010 )
b11 *
18
b10000011001010100001100100001 <
b1100 =
b10 C
b1100 F
b1000 G
b1100 H
b100000000000000100010 I
b1000 J
b10 K
b1100 M
b10000011001010100001100100001 N
b100 O
b11 P
b101 Q
b1000 R
b100001100100001 S
b1000100 T
b11 U
b101 V
b100001100100001 W
b1000100 X
b1000 ]
b1 ^
b11 _
b10101010 `
b11 a
b100001 d
b11 f
b100 g
0h
b11 i
b10110010 j
b100 l
b10 m

#30000
0!
08

#35000
1!
b0 !!
0"!
b1100 #
b100000000000000100010 $
b10000 %
b1100 &
b11 '
b101 (
b100001100100001 )
b101 *
b1000 +
b1000100 ,
b10110010 -
0.
b100 /
b11 0
b11 1
05
18
b10110010 ;
b100000000000000100010 <
b10000 =
b0 >
b100 ?
b1 @
b10 E
b10000 F
b1100 G
b10000 H
b10001100000100100011010001010110 I
b1100 J
b11 K
b10000 M
b100000000000000100010 N
b0 O
b0 P
b10000 Q
b0 R
b100010 S
b100001100 T
b0 U
b10000 V
b100010 W
b100001100 X
b1100 ]
b11 ^
b101 _
b100001100100001 `
b101 a
b1000 b
b1000100 c
b100010 d
b110 e
b101 f
b11111111111111111111111111111110 g
b101 i
b100001100101101 j
b110 k
b11111111111111111111111111111110 l
b10110010 o
0p
b100 q
b11 r
b11 s
0w
b10 {

#40000
0!
08

#45000
1!
b0 !!
1"!
b10000 #
b10001100000100100011010001010110 $
b10100 %
b10000 &
b0 '
b10000 (
b100010 )
b10000 *
b0 +
b100001100 ,
b100001100101101 -
b11111111111111111111111111111110 /
b101 0
b101 1
b100 2
b11 4
15
b11 6
b100 7
18
b100001100101101 ;
b10001100000100100011010001010110 <
b10100 =
b10 >
b0 ?
b11 @
b0 C
b100 D
b10100 F
b10000 G
b10100 H
b10001111000100100011010001010110 I
b10000 J
b100 K
b10100 M
b10001100000100100011010001010110 N
b100011 O
b10010 Q
b110 R
b11010001010110 S
b110100001 T
b10010 V
b11010001010110 W
b110100001 X
b10000 ]
b0 ^
b10000 _
b100010 `
b10000 a
b0 b
b100001100 c
b10110 d
b10 e
b10000 f
b10000 g
b10000 i
b110010 j
b10 k
b10000 l
b0 m
b100 n
b100001100101101 o
b11111111111111111111111111111110 q
b101 r
b101 s
1t
b100 |
b11 ~

#50000
0!
08

#55000
1!
b1 !!
b10100 #
1#!
b10001111000100100011010001010110 $
b11000 %
b10100 &
b10010 (
b11010001010110 )
b10010 *
b110 +
b110100001 ,
b110010 -
b10000 /
b10000 0
b10000 1
b11111111111111111111111111111110 2
b101 4
b101 6
b0 7
18
b110010 ;
b10001111000100100011010001010110 <
b11000 =
b11 >
b10 ?
b0 @
1A
b10 C
b0 D
b0 E
b11000 F
b10100 G
b11000 H
b10101101011001010100001100100001 I
b10100 J
b101 K
b11000 M
b10001111000100100011010001010110 N
b11000 P
b11000 U
b10100 ]
b10010 _
b11010001010110 `
b10010 a
b110 b
b110100001 c
b10110 d
b11010001010110 f
b11010001010110 g
b10010 i
b11010001101010 j
b11010001010110 l
b10 m
b0 n
b110010 o
b10000 q
b10000 r
b10000 s
0t
b0 {
b11111111111111111111111111111110 |
b101 ~

#60000
0!
08

#65000
1!
b11000 #
b10101101011001010100001100100001 $
b11100 %
b11000 &
b11000 '
b11010001101010 -
b11010001010110 /
b10010 0
b10010 1
b10000 2
b10000 4
b10000 6
18
b11010001101010 ;
b10101101011001010100001100100001 <
b11100 =
b11 C
b10 D
b10 E
b11100 F
b11000 G
b11100 H
b10011000000010010001101000101 I
b11000 J
b110 K
b11100 M
b10101101011001010100001100100001 N
b101011 O
b1011 P
b101 Q
b1000 R
b100001100100001 S
b10001 T
b1011 U
b101 V
b100001100100001 W
b10001 X
b11000 ]
b11000 ^
b100001 d
b11010001101110 g
b11010001101110 j
b11010001101110 l
b11 m
b10 n
b11010001101010 o
b11010001010110 q
b10010 r
b10010 s
1u
b10001100000100100011010001010110 x
b10001100000100100011010001010110 y
b10 {
b10000 |
b10000 ~

#70000
0!
08

#75000
1!
b1 !!
0"!
b11100 #
0#!
b10011000000010010001101000101 $
b100000 %
b11100 &
b1011 '
b101 (
b100001100100001 )
b101 *
b1000 +
b10001 ,
b11010001101110 -
b11010001101110 /
b11010001010110 2
b10001100000100100011010001010110 3
b10010 4
05
b10010 6
b11010001010110 7
18
b11010001101110 ;
b10011000000010010001101000101 <
b100000 =
b0 >
b1 ?
b11 E
b100000 F
b11100 G
b100000 H
b10101100011001010100001100100001 I
b11100 J
b111 K
b100000 M
b10011000000010010001101000101 N
b100 O
b11000 P
b1 Q
b100 R
b10001101000101 S
b1000100 T
b11000 U
b1 V
b10001101000101 W
b1000100 X
b11100 ]
b1011 ^
b101 _
b100001100100001 `
b101 a
b1000 b
b10001 c
b101 d
b100001100100001 f
b100001100101100 g
b101 i
b100001100111101 j
b100001100101100 l
b11010001101110 o
b11010001101110 q
b1000110000000010101010 x
b1000110000000010101010 y
b11 {
b11010001010110 |
b10001100000100100011010001010110 }
b10010 ~

#80000
0!
08

#85000
1!
b0 !!
b100000 #
b10101100011001010100001100100001 $
b100100 %
b100000 &
b11000 '
b1 (
b10001101000101 )
b1 *
b100 +
b1000100 ,
b100001100111101 -
b100001100101100 /
b101 0
b101 1
b11010001101110 2
b1000110000000010101010 3
b11010001101110 7
18
b100001100111101 ;
b10101100011001010100001100100001 <
b100100 =
b100 ?
b1 @
0A
b0 C
b1 D
b100100 F
b100000 G
b100100 H
b10010000000010010001101000101 I
b100000 J
b1000 K
b100100 M
b10101100011001010100001100100001 N
b101011 O
b11 P
b101 Q
b1000 R
b100001100100001 S
b10001 T
b11 U
b101 V
b100001100100001 W
b10001 X
b100000 ]
b11000 ^
b1 _
b10001101000101 `
b1 a
b100 b
b1000100 c
b100001 d
b110 e
b1 f
b10111 g
b1 i
b10001101100101 j
b110 k
b10111 l
b0 m
b1 n
b100001100111101 o
b100001100101100 q
b101 r
b101 s
0u
1v
b0 x
b0 y
b11010001101110 |
b1000110000000010101010 }

#90000
0!
08

#95000
1!
b1 !!
b100100 #
b10010000000010010001101000101 $
b101000 %
b100100 &
b11 '
b101 (
b100001100100001 )
b101 *
b1000 +
b10001 ,
b10001101100101 -
b10111 /
b1 0
b1 1
b100001100101100 2
b0 3
b101 4
b101 6
b100001100101100 7
18
b10001101100101 ;
b10010000000010010001101000101 <
b101000 =
b1 ?
b0 @
1A
b100 D
b0 E
b101000 F
b100100 G
b101000 H
b0 I
b100100 J
b1001 K
b101000 M
b10010000000010010001101000101 N
b100 O
b10000 P
b1 Q
b100 R
b10001101000101 S
b1000100 T
b10000 U
b1 V
b10001101000101 W
b1000100 X
b100100 ]
b11 ^
b101 _
b100001100100001 `
b101 a
b1000 b
b10001 c
b101 d
b10 e
b100001100100001 f
b100001100100100 g
b101 i
b100001101000101 j
b10 k
b100001100100100 l
b100 n
b10001101100101 o
b10111 q
b1 r
b1 s
1t
0v
b0 {
b100001100101100 |
b0 }
b101 ~

#100000
0!
08

#105000
1!
b0 !!
b101000 #
b0 $
b101100 %
b101000 &
b10000 '
b1 (
b10001101000101 )
b1 *
b100 +
b1000100 ,
b100001101000101 -
b100001100100100 /
b101 0
b101 1
b10111 2
b1 4
b1 6
b10111 7
18
b100001101000101 ;
b0 <
b101100 =
b100 ?
b1 @
0A
b1 D
b101100 F
b101000 G
b101100 H
b101000 J
b1010 K
b101100 M
b0 N
b0 O
b0 P
b0 Q
b0 R
b0 S
b100001100 T
b0 U
b0 V
b0 W
b100001100 X
b101000 ]
b10000 ^
b1 _
b10001101000101 `
b1 a
b100 b
b1000100 c
b0 d
b110 e
b1 f
b1111 g
b1 i
b10001101101101 j
b110 k
b1111 l
b1 n
b100001101000101 o
b100001100100100 q
b101 r
b101 s
0t
1v
b10111 |
b1 ~

#110000
0!
08

#115000
1!
b0 !!
1"!
b101100 #
b110000 %
b101100 &
b0 '
b0 (
b0 )
b0 *
b0 +
b100001100 ,
b10001101101101 -
b1111 /
b1 0
b1 1
b100001100100100 2
b101 4
15
b101 6
b100001100100100 7
18
b10001101101101 ;
b110000 =
b10 >
b0 ?
b11 @
b100 D
b110000 F
b101100 G
b110000 H
b101100 J
b1011 K
b110000 M
b101100 ]
b0 ^
b0 _
b0 `
b0 a
b0 b
b100001100 c
b10 e
b0 f
b0 g
1h
b0 i
b101100 j
b10 k
b0 l
b100 n
b10001101101101 o
b1111 q
b1 r
b1 s
1t
0v
b100001100100100 |
b101 ~

#120000
0!
08

#125000
1!
b110000 #
b110100 %
b110000 &
b101100 -
1.
b0 /
b0 0
b0 1
b1111 2
b1 4
b1 6
b1111 7
18
b101100 ;
b110100 =
b10 C
b0 D
b110100 F
b110000 G
b110100 H
b110000 J
b1100 K
b110100 M
b110000 ]
b110000 j
b10 m
b0 n
b101100 o
1p
b0 q
b0 r
b0 s
0t
1w
b1111 |
b1 ~

#130000
0!
08

#135000
1!
b110100 #
b111000 %
b110100 &
b110000 -
b0 2
b0 4
b0 6
b0 7
18
b110000 ;
b111000 =
b10 E
b111000 F
b110100 G
b111000 H
b110100 J
b1101 K
b111000 M
b110100 ]
b110100 j
b110000 o
b10 {
b0 |
b0 ~

#140000
0!
08

#145000
1!
b111000 #
b111100 %
b111000 &
b110100 -
18
b110100 ;
b111100 =
b111100 F
b111000 G
b111100 H
b111000 J
b1110 K
b111100 M
b111000 ]
b111000 j
b110100 o

#150000
0!
08

#155000
1!
b111100 #
b1000000 %
b111100 &
b111000 -
18
b111000 ;
b1000000 =
b1000000 F
b111100 G
b1000000 H
b111100 J
b1111 K
b1000000 M
b111100 ]
b111100 j
b111000 o

#160000
0!
08

#165000
1!
b1000000 #
b1000100 %
b1000000 &
b111100 -
18
b111100 ;
b1000100 =
b1000100 F
b1000000 G
b1000100 H
b1000000 J
b10000 K
b1000100 M
b1000000 ]
b1000000 j
b111100 o

#170000
0!
08

#175000
1!
b1000100 #
b1001000 %
b1000100 &
b1000000 -
18
b1000000 ;
b1001000 =
b1001000 F
b1000100 G
b1001000 H
b1000100 J
b10001 K
b1001000 M
b1000100 ]
b1000100 j
b1000000 o

#180000
0!
08

#185000
1!
b1001000 #
b1001100 %
b1001000 &
b1000100 -
18
b1000100 ;
b1001100 =
b1001100 F
b1001000 G
b1001100 H
b1001000 J
b10010 K
b1001100 M
b1001000 ]
b1001000 j
b1000100 o

#190000
0!
08

#195000
1!
b1001100 #
b1010000 %
b1001100 &
b1001000 -
18
b1001000 ;
b1010000 =
b1010000 F
b1001100 G
b1010000 H
b1001100 J
b10011 K
b1010000 M
b1001100 ]
b1001100 j
b1001000 o

#200000
0!
08

#205000
1!
b1010000 #
b1010100 %
b1010000 &
b1001100 -
18
b1001100 ;
b1010100 =
b1010100 F
b1010000 G
b1010100 H
b1010000 J
b10100 K
b1010100 M
b1010000 ]
b1010000 j
b1001100 o

#210000
0!
08

#215000
1!
b1010100 #
b1011000 %
b1010100 &
b1010000 -
18
b1010000 ;
b1011000 =
b1011000 F
b1010100 G
b1011000 H
b1010100 J
b10101 K
b1011000 M
b1010100 ]
b1010100 j
b1010000 o

#220000
0!
08

#225000
1!
b1011000 #
b1011100 %
b1011000 &
b1010100 -
18
b1010100 ;
b1011100 =
b1011100 F
b1011000 G
b1011100 H
b1011000 J
b10110 K
b1011100 M
b1011000 ]
b1011000 j
b1010100 o

#230000
0!
08

#235000
1!
b1011100 #
b1100000 %
b1011100 &
b1011000 -
18
b1011000 ;
b1100000 =
b1100000 F
b1011100 G
b1100000 H
b1011100 J
b10111 K
b1100000 M
b1011100 ]
b1011100 j
b1011000 o

#240000
0!
08

#245000
1!
b1100000 #
b1100100 %
b1100000 &
b1011100 -
18
b1011100 ;
b1100100 =
b1100100 F
b1100000 G
b1100100 H
b1100000 J
b11000 K
b1100100 M
b1100000 ]
b1100000 j
b1011100 o

#250000
0!
08

#255000
1!
b1100100 #
b1101000 %
b1100100 &
b1100000 -
18
b1100000 ;
b1101000 =
b1101000 F
b1100100 G
b1101000 H
b1100100 J
b11001 K
b1101000 M
b1100100 ]
b1100100 j
b1100000 o

#260000
0!
08

#265000
1!
b1101000 #
b1101100 %
b1101000 &
b1100100 -
18
b1100100 ;
b1101100 =
b1101100 F
b1101000 G
b1101100 H
b1101000 J
b11010 K
b1101100 M
b1101000 ]
b1101000 j
b1100100 o

#270000
0!
08

#275000
1!
b1101100 #
b1110000 %
b1101100 &
b1101000 -
18
b1101000 ;
b1110000 =
b1110000 F
b1101100 G
b1110000 H
b1101100 J
b11011 K
b1110000 M
b1101100 ]
b1101100 j
b1101000 o

#280000
0!
08

#285000
1!
b1110000 #
b1110100 %
b1110000 &
b1101100 -
18
b1101100 ;
b1110100 =
b1110100 F
b1110000 G
b1110100 H
b1110000 J
b11100 K
b1110100 M
b1110000 ]
b1110000 j
b1101100 o

#290000
0!
08

#295000
1!
b1110100 #
b1111000 %
b1110100 &
b1110000 -
18
b1110000 ;
b1111000 =
b1111000 F
b1110100 G
b1111000 H
b1110100 J
b11101 K
b1111000 M
b1110100 ]
b1110100 j
b1110000 o

#300000
0!
08

#305000
1!
b1111000 #
b1111100 %
b1111000 &
b1110100 -
18
b1110100 ;
b1111100 =
b1111100 F
b1111000 G
b1111100 H
b1111000 J
b11110 K
b1111100 M
b1111000 ]
b1111000 j
b1110100 o

#310000
0!
08

#315000
1!
b1111100 #
b10000000 %
b1111100 &
b1111000 -
18
b1111000 ;
b10000000 =
b10000000 F
b1111100 G
b10000000 H
b1111100 J
b11111 K
b10000000 M
b1111100 ]
b1111100 j
b1111000 o

#320000
0!
08

#325000
1!
b10000000 #
b10000100 %
b10000000 &
b1111100 -
18
b1111100 ;
b10000100 =
b10000100 F
b10000000 G
b10000100 H
b10000000 J
b100000 K
b10000100 M
b10000000 ]
b10000000 j
b1111100 o

#330000
0!
08

#335000
1!
b10000100 #
b10001000 %
b10000100 &
b10000000 -
18
b10000000 ;
b10001000 =
b10001000 F
b10000100 G
b10001000 H
b10000100 J
b100001 K
b10001000 M
b10000100 ]
b10000100 j
b10000000 o

#340000
0!
08

#345000
1!
b10001000 #
b10001100 %
b10001000 &
b10000100 -
18
b10000100 ;
b10001100 =
b10001100 F
b10001000 G
b10001100 H
b10001000 J
b100010 K
b10001100 M
b10001000 ]
b10001000 j
b10000100 o

#350000
0!
08

#355000
1!
b10001100 #
b10010000 %
b10001100 &
b10001000 -
18
b10001000 ;
b10010000 =
b10010000 F
b10001100 G
b10010000 H
b10001100 J
b100011 K
b10010000 M
b10001100 ]
b10001100 j
b10001000 o

#360000
0!
08

#365000
1!
b10010000 #
b10010100 %
b10010000 &
b10001100 -
18
b10001100 ;
b10010100 =
b10010100 F
b10010000 G
b10010100 H
b10010000 J
b100100 K
b10010100 M
b10010000 ]
b10010000 j
b10001100 o

#370000
0!
08

#375000
1!
b10010100 #
b10011000 %
b10010100 &
b10010000 -
18
b10010000 ;
b10011000 =
b10011000 F
b10010100 G
b10011000 H
b10010100 J
b100101 K
b10011000 M
b10010100 ]
b10010100 j
b10010000 o

#380000
0!
08

#385000
1!
b10011000 #
b10011100 %
b10011000 &
b10010100 -
18
b10010100 ;
b10011100 =
b10011100 F
b10011000 G
b10011100 H
b10011000 J
b100110 K
b10011100 M
b10011000 ]
b10011000 j
b10010100 o

#390000
0!
08

#395000
1!
b10011100 #
b10100000 %
b10011100 &
b10011000 -
18
b10011000 ;
b10100000 =
b10100000 F
b10011100 G
b10100000 H
b10011100 J
b100111 K
b10100000 M
b10011100 ]
b10011100 j
b10011000 o

#400000
0!
08

#405000
1!
b10100000 #
b10100100 %
b10100000 &
b10011100 -
18
b10011100 ;
b10100100 =
b10100100 F
b10100000 G
b10100100 H
b10100000 J
b101000 K
b10100100 M
b10100000 ]
b10100000 j
b10011100 o

#410000
0!
08

#415000
1!
b10100100 #
b10101000 %
b10100100 &
b10100000 -
18
b10100000 ;
b10101000 =
b10101000 F
b10100100 G
b10101000 H
b10100100 J
b101001 K
b10101000 M
b10100100 ]
b10100100 j
b10100000 o

#420000
0!
08

#425000
1!
b10101000 #
b10101100 %
b10101000 &
b10100100 -
18
b10100100 ;
b10101100 =
b10101100 F
b10101000 G
b10101100 H
b10101000 J
b101010 K
b10101100 M
b10101000 ]
b10101000 j
b10100100 o

#430000
0!
08

#435000
1!
b10101100 #
b10110000 %
b10101100 &
b10101000 -
18
b10101000 ;
b10110000 =
b10110000 F
b10101100 G
b10110000 H
b10101100 J
b101011 K
b10110000 M
b10101100 ]
b10101100 j
b10101000 o

#440000
0!
08

#445000
1!
b10110000 #
b10110100 %
b10110000 &
b10101100 -
18
b10101100 ;
b10110100 =
b10110100 F
b10110000 G
b10110100 H
b10110000 J
b101100 K
b10110100 M
b10110000 ]
b10110000 j
b10101100 o

#450000
0!
08

#455000
1!
b10110100 #
b10111000 %
b10110100 &
b10110000 -
18
b10110000 ;
b10111000 =
b10111000 F
b10110100 G
b10111000 H
b10110100 J
b101101 K
b10111000 M
b10110100 ]
b10110100 j
b10110000 o

#460000
0!
08

