IF + ID + EX + MEM + WB/4300lab1a.sim/sim_1/behav/xsim/simulate.log
Time resolution is 1 ps
T=5000 | PC=00000000 | IR=00000000 | NPC=00000000
       ID: control=000000000 | rs=0 rt=0 rd=0
       EX: ALUres=         0 | zero=0 | write_reg=0
       MEM: mem_read=0 | alu_result=         0 | mem_data=         0 | wb_reg=0
       WB: regwrite=0 | write_reg=0 | write_data=         0

T=15000 | PC=00000000 | IR=00000000 | NPC=00000000
       ID: control=000000000 | rs=0 rt=0 rd=0
       EX: ALUres=         0 | zero=0 | write_reg=0
       MEM: mem_read=0 | alu_result=         0 | mem_data=         0 | wb_reg=0
       WB: regwrite=0 | write_reg=0 | write_data=         0

T=25000 | PC=00000004 | IR=002300aa | NPC=00000008
       ID: control=100001100 | rs=1 rt=0 rd=0
       EX: ALUres=         0 | zero=1 | write_reg=0
       MEM: mem_read=0 | alu_result=         0 | mem_data=         0 | wb_reg=0
       WB: regwrite=0 | write_reg=0 | write_data=         0

T=35000 | PC=00000008 | IR=10654321 | NPC=0000000c
       ID: control=100001100 | rs=3 rt=3 rd=0
       EX: ALUres=         0 | zero=1 | write_reg=0
       MEM: mem_read=0 | alu_result=         0 | mem_data=         0 | wb_reg=0
       WB: regwrite=0 | write_reg=0 | write_data=         0

T=45000 | PC=0000000c | IR=00100022 | NPC=00000010
       ID: control=001000100 | rs=0 rt=5 rd=8
       EX: ALUres=         4 | zero=0 | write_reg=3
       MEM: mem_read=0 | alu_result=         0 | mem_data=         0 | wb_reg=0
       WB: regwrite=1 | write_reg=0 | write_data=         0

T=55000 | PC=00000010 | IR=8c123456 | NPC=00000014
       ID: control=100001100 | rs=0 rt=16 rd=0
       EX: ALUres=4294967294 | zero=0 | write_reg=5
       MEM: mem_read=0 | alu_result=         4 | mem_data=         0 | wb_reg=3
       WB: regwrite=1 | write_reg=3 | write_data=         4

T=65000 | PC=00000014 | IR=8f123456 | NPC=00000018
       ID: control=110100001 | rs=24 rt=18 rd=6
       EX: ALUres=        16 | zero=0 | write_reg=16
       MEM: mem_read=1 | alu_result=4294967294 | mem_data=         0 | wb_reg=5
       WB: regwrite=0 | write_reg=5 | write_data=4294967294

MEM READ : mem[21] -> 8c123456
T=75000 | PC=00000018 | IR=ad654321 | NPC=0000001c
       ID: control=110100001 | rs=11 rt=18 rd=6
       EX: ALUres=     13398 | zero=0 | write_reg=18
       MEM: mem_read=1 | alu_result=        16 | mem_data=         0 | wb_reg=16
       WB: regwrite=1 | write_reg=16 | write_data=        16

MEM READ : mem[27] -> 002300aa
T=85000 | PC=0000001c | IR=13012345 | NPC=00000020
       ID: control=000010001 | rs=24 rt=5 rd=8
       EX: ALUres=     13422 | zero=0 | write_reg=18
       MEM: mem_read=0 | alu_result=     13398 | mem_data=2350003286 | wb_reg=18
       WB: regwrite=1 | write_reg=18 | write_data=2350003286

T=95000 | PC=00000020 | IR=ac654321 | NPC=00000024
       ID: control=001000100 | rs=3 rt=1 rd=4
       EX: ALUres=     17196 | zero=0 | write_reg=5
       MEM: mem_read=0 | alu_result=     13422 | mem_data=   2293930 | wb_reg=18
       WB: regwrite=1 | write_reg=18 | write_data=   2293930

MEM WRITE: mem[75] = 00000005
T=105000 | PC=00000024 | IR=12012345 | NPC=00000028
       ID: control=000010001 | rs=16 rt=5 rd=8
       EX: ALUres=        23 | zero=0 | write_reg=1
       MEM: mem_read=0 | alu_result=     17196 | mem_data=         0 | wb_reg=5
       WB: regwrite=0 | write_reg=5 | write_data=     17196

T=115000 | PC=00000028 | IR=00000000 | NPC=0000002c
       ID: control=001000100 | rs=0 rt=1 rd=4
       EX: ALUres=     17188 | zero=0 | write_reg=5
       MEM: mem_read=0 | alu_result=        23 | mem_data=         0 | wb_reg=1
       WB: regwrite=0 | write_reg=1 | write_data=        23

MEM WRITE: mem[73] = 00000005
T=125000 | PC=0000002c | IR=00000000 | NPC=00000030
       ID: control=100001100 | rs=0 rt=0 rd=0
       EX: ALUres=        15 | zero=0 | write_reg=1
       MEM: mem_read=0 | alu_result=     17188 | mem_data=         0 | wb_reg=5
       WB: regwrite=0 | write_reg=5 | write_data=     17188

T=135000 | PC=00000030 | IR=00000000 | NPC=00000034
       ID: control=100001100 | rs=0 rt=0 rd=0
       EX: ALUres=         0 | zero=1 | write_reg=0
       MEM: mem_read=0 | alu_result=        15 | mem_data=         0 | wb_reg=1
       WB: regwrite=0 | write_reg=1 | write_data=        15

T=145000 | PC=00000034 | IR=00000000 | NPC=00000038
       ID: control=100001100 | rs=0 rt=0 rd=0
       EX: ALUres=         0 | zero=1 | write_reg=0
       MEM: mem_read=0 | alu_result=         0 | mem_data=         0 | wb_reg=0
       WB: regwrite=1 | write_reg=0 | write_data=         0

T=155000 | PC=00000038 | IR=00000000 | NPC=0000003c
       ID: control=100001100 | rs=0 rt=0 rd=0
       EX: ALUres=         0 | zero=1 | write_reg=0
       MEM: mem_read=0 | alu_result=         0 | mem_data=         0 | wb_reg=0
       WB: regwrite=1 | write_reg=0 | write_data=         0

T=165000 | PC=0000003c | IR=00000000 | NPC=00000040
       ID: control=100001100 | rs=0 rt=0 rd=0
       EX: ALUres=         0 | zero=1 | write_reg=0
       MEM: mem_read=0 | alu_result=         0 | mem_data=         0 | wb_reg=0
       WB: regwrite=1 | write_reg=0 | write_data=         0

T=175000 | PC=00000040 | IR=00000000 | NPC=00000044
       ID: control=100001100 | rs=0 rt=0 rd=0
       EX: ALUres=         0 | zero=1 | write_reg=0
       MEM: mem_read=0 | alu_result=         0 | mem_data=         0 | wb_reg=0
       WB: regwrite=1 | write_reg=0 | write_data=         0

T=185000 | PC=00000044 | IR=00000000 | NPC=00000048
       ID: control=100001100 | rs=0 rt=0 rd=0
       EX: ALUres=         0 | zero=1 | write_reg=0
       MEM: mem_read=0 | alu_result=         0 | mem_data=         0 | wb_reg=0
       WB: regwrite=1 | write_reg=0 | write_data=         0

T=195000 | PC=00000048 | IR=00000000 | NPC=0000004c
       ID: control=100001100 | rs=0 rt=0 rd=0
       EX: ALUres=         0 | zero=1 | write_reg=0
       MEM: mem_read=0 | alu_result=         0 | mem_data=         0 | wb_reg=0
       WB: regwrite=1 | write_reg=0 | write_data=         0

T=205000 | PC=0000004c | IR=00000000 | NPC=00000050
       ID: control=100001100 | rs=0 rt=0 rd=0
       EX: ALUres=         0 | zero=1 | write_reg=0
       MEM: mem_read=0 | alu_result=         0 | mem_data=         0 | wb_reg=0
       WB: regwrite=1 | write_reg=0 | write_data=         0

T=215000 | PC=00000050 | IR=00000000 | NPC=00000054
       ID: control=100001100 | rs=0 rt=0 rd=0
       EX: ALUres=         0 | zero=1 | write_reg=0
       MEM: mem_read=0 | alu_result=         0 | mem_data=         0 | wb_reg=0
       WB: regwrite=1 | write_reg=0 | write_data=         0

T=225000 | PC=00000054 | IR=00000000 | NPC=00000058
       ID: control=100001100 | rs=0 rt=0 rd=0
       EX: ALUres=         0 | zero=1 | write_reg=0
       MEM: mem_read=0 | alu_result=         0 | mem_data=         0 | wb_reg=0
       WB: regwrite=1 | write_reg=0 | write_data=         0

T=235000 | PC=00000058 | IR=00000000 | NPC=0000005c
       ID: control=100001100 | rs=0 rt=0 rd=0
       EX: ALUres=         0 | zero=1 | write_reg=0
       MEM: mem_read=0 | alu_result=         0 | mem_data=         0 | wb_reg=0
       WB: regwrite=1 | write_reg=0 | write_data=         0

T=245000 | PC=0000005c | IR=00000000 | NPC=00000060
       ID: control=100001100 | rs=0 rt=0 rd=0
       EX: ALUres=         0 | zero=1 | write_reg=0
       MEM: mem_read=0 | alu_result=         0 | mem_data=         0 | wb_reg=0
       WB: regwrite=1 | write_reg=0 | write_data=         0

T=255000 | PC=00000060 | IR=00000000 | NPC=00000064
       ID: control=100001100 | rs=0 rt=0 rd=0
       EX: ALUres=         0 | zero=1 | write_reg=0
       MEM: mem_read=0 | alu_result=         0 | mem_data=         0 | wb_reg=0
       WB: regwrite=1 | write_reg=0 | write_data=         0

T=265000 | PC=00000064 | IR=00000000 | NPC=00000068
       ID: control=100001100 | rs=0 rt=0 rd=0
       EX: ALUres=         0 | zero=1 | write_reg=0
       MEM: mem_read=0 | alu_result=         0 | mem_data=         0 | wb_reg=0
       WB: regwrite=1 | write_reg=0 | write_data=         0

T=275000 | PC=00000068 | IR=00000000 | NPC=0000006c
       ID: control=100001100 | rs=0 rt=0 rd=0
       EX: ALUres=         0 | zero=1 | write_reg=0
       MEM: mem_read=0 | alu_result=         0 | mem_data=         0 | wb_reg=0
       WB: regwrite=1 | write_reg=0 | write_data=         0

T=285000 | PC=0000006c | IR=00000000 | NPC=00000070
       ID: control=100001100 | rs=0 rt=0 rd=0
       EX: ALUres=         0 | zero=1 | write_reg=0
       MEM: mem_read=0 | alu_result=         0 | mem_data=         0 | wb_reg=0
       WB: regwrite=1 | write_reg=0 | write_data=         0

T=295000 | PC=00000070 | IR=00000000 | NPC=00000074
       ID: control=100001100 | rs=0 rt=0 rd=0
       EX: ALUres=         0 | zero=1 | write_reg=0
       MEM: mem_read=0 | alu_result=         0 | mem_data=         0 | wb_reg=0
       WB: regwrite=1 | write_reg=0 | write_data=         0

T=305000 | PC=00000074 | IR=00000000 | NPC=00000078
       ID: control=100001100 | rs=0 rt=0 rd=0
       EX: ALUres=         0 | zero=1 | write_reg=0
       MEM: mem_read=0 | alu_result=         0 | mem_data=         0 | wb_reg=0
       WB: regwrite=1 | write_reg=0 | write_data=         0

T=315000 | PC=00000078 | IR=00000000 | NPC=0000007c
       ID: control=100001100 | rs=0 rt=0 rd=0
       EX: ALUres=         0 | zero=1 | write_reg=0
       MEM: mem_read=0 | alu_result=         0 | mem_data=         0 | wb_reg=0
       WB: regwrite=1 | write_reg=0 | write_data=         0

T=325000 | PC=0000007c | IR=00000000 | NPC=00000080
       ID: control=100001100 | rs=0 rt=0 rd=0
       EX: ALUres=         0 | zero=1 | write_reg=0
       MEM: mem_read=0 | alu_result=         0 | mem_data=         0 | wb_reg=0
       WB: regwrite=1 | write_reg=0 | write_data=         0

T=335000 | PC=00000080 | IR=00000000 | NPC=00000084
       ID: control=100001100 | rs=0 rt=0 rd=0
       EX: ALUres=         0 | zero=1 | write_reg=0
       MEM: mem_read=0 | alu_result=         0 | mem_data=         0 | wb_reg=0
       WB: regwrite=1 | write_reg=0 | write_data=         0

T=345000 | PC=00000084 | IR=00000000 | NPC=00000088
       ID: control=100001100 | rs=0 rt=0 rd=0
       EX: ALUres=         0 | zero=1 | write_reg=0
       MEM: mem_read=0 | alu_result=         0 | mem_data=         0 | wb_reg=0
       WB: regwrite=1 | write_reg=0 | write_data=         0

T=355000 | PC=00000088 | IR=00000000 | NPC=0000008c
       ID: control=100001100 | rs=0 rt=0 rd=0
       EX: ALUres=         0 | zero=1 | write_reg=0
       MEM: mem_read=0 | alu_result=         0 | mem_data=         0 | wb_reg=0
       WB: regwrite=1 | write_reg=0 | write_data=         0

T=365000 | PC=0000008c | IR=00000000 | NPC=00000090
       ID: control=100001100 | rs=0 rt=0 rd=0
       EX: ALUres=         0 | zero=1 | write_reg=0
       MEM: mem_read=0 | alu_result=         0 | mem_data=         0 | wb_reg=0
       WB: regwrite=1 | write_reg=0 | write_data=         0

T=375000 | PC=00000090 | IR=00000000 | NPC=00000094
       ID: control=100001100 | rs=0 rt=0 rd=0
       EX: ALUres=         0 | zero=1 | write_reg=0
       MEM: mem_read=0 | alu_result=         0 | mem_data=         0 | wb_reg=0
       WB: regwrite=1 | write_reg=0 | write_data=         0

T=385000 | PC=00000094 | IR=00000000 | NPC=00000098
       ID: control=100001100 | rs=0 rt=0 rd=0
       EX: ALUres=         0 | zero=1 | write_reg=0
       MEM: mem_read=0 | alu_result=         0 | mem_data=         0 | wb_reg=0
       WB: regwrite=1 | write_reg=0 | write_data=         0

T=395000 | PC=00000098 | IR=00000000 | NPC=0000009c
       ID: control=100001100 | rs=0 rt=0 rd=0
       EX: ALUres=         0 | zero=1 | write_reg=0
       MEM: mem_read=0 | alu_result=         0 | mem_data=         0 | wb_reg=0
       WB: regwrite=1 | write_reg=0 | write_data=         0

T=405000 | PC=0000009c | IR=00000000 | NPC=000000a0
       ID: control=100001100 | rs=0 rt=0 rd=0
       EX: ALUres=         0 | zero=1 | write_reg=0
       MEM: mem_read=0 | alu_result=         0 | mem_data=         0 | wb_reg=0
       WB: regwrite=1 | write_reg=0 | write_data=         0

T=415000 | PC=000000a0 | IR=00000000 | NPC=000000a4
       ID: control=100001100 | rs=0 rt=0 rd=0
       EX: ALUres=         0 | zero=1 | write_reg=0
       MEM: mem_read=0 | alu_result=         0 | mem_data=         0 | wb_reg=0
       WB: regwrite=1 | write_reg=0 | write_data=         0

T=425000 | PC=000000a4 | IR=00000000 | NPC=000000a8
       ID: control=100001100 | rs=0 rt=0 rd=0
       EX: ALUres=         0 | zero=1 | write_reg=0
       MEM: mem_read=0 | alu_result=         0 | mem_data=         0 | wb_reg=0
       WB: regwrite=1 | write_reg=0 | write_data=         0

T=435000 | PC=000000a8 | IR=00000000 | NPC=000000ac
       ID: control=100001100 | rs=0 rt=0 rd=0
       EX: ALUres=         0 | zero=1 | write_reg=0
       MEM: mem_read=0 | alu_result=         0 | mem_data=         0 | wb_reg=0
       WB: regwrite=1 | write_reg=0 | write_data=         0

T=445000 | PC=000000ac | IR=00000000 | NPC=000000b0
       ID: control=100001100 | rs=0 rt=0 rd=0
       EX: ALUres=         0 | zero=1 | write_reg=0
       MEM: mem_read=0 | alu_result=         0 | mem_data=         0 | wb_reg=0
       WB: regwrite=1 | write_reg=0 | write_data=         0

T=455000 | PC=000000b0 | IR=00000000 | NPC=000000b4
       ID: control=100001100 | rs=0 rt=0 rd=0
       EX: ALUres=         0 | zero=1 | write_reg=0
       MEM: mem_read=0 | alu_result=         0 | mem_data=         0 | wb_reg=0
       WB: regwrite=1 | write_reg=0 | write_data=         0

T=465000 | PC=000000b4 | IR=00000000 | NPC=000000b8
       ID: control=100001100 | rs=0 rt=0 rd=0
       EX: ALUres=         0 | zero=1 | write_reg=0
       MEM: mem_read=0 | alu_result=         0 | mem_data=         0 | wb_reg=0
       WB: regwrite=1 | write_reg=0 | write_data=         0

T=475000 | PC=000000b8 | IR=00000000 | NPC=000000bc
       ID: control=100001100 | rs=0 rt=0 rd=0
       EX: ALUres=         0 | zero=1 | write_reg=0
       MEM: mem_read=0 | alu_result=         0 | mem_data=         0 | wb_reg=0
       WB: regwrite=1 | write_reg=0 | write_data=         0

T=485000 | PC=000000bc | IR=00000000 | NPC=000000c0
       ID: control=100001100 | rs=0 rt=0 rd=0
       EX: ALUres=         0 | zero=1 | write_reg=0
       MEM: mem_read=0 | alu_result=         0 | mem_data=         0 | wb_reg=0
       WB: regwrite=1 | write_reg=0 | write_data=         0

T=495000 | PC=000000c0 | IR=00000000 | NPC=000000c4
       ID: control=100001100 | rs=0 rt=0 rd=0
       EX: ALUres=         0 | zero=1 | write_reg=0
       MEM: mem_read=0 | alu_result=         0 | mem_data=         0 | wb_reg=0
       WB: regwrite=1 | write_reg=0 | write_data=         0

T=505000 | PC=000000c4 | IR=00000000 | NPC=000000c8
       ID: control=100001100 | rs=0 rt=0 rd=0
       EX: ALUres=         0 | zero=1 | write_reg=0
       MEM: mem_read=0 | alu_result=         0 | mem_data=         0 | wb_reg=0
       WB: regwrite=1 | write_reg=0 | write_data=         0

T=515000 | PC=000000c8 | IR=00000000 | NPC=000000cc
       ID: control=100001100 | rs=0 rt=0 rd=0
       EX: ALUres=         0 | zero=1 | write_reg=0
       MEM: mem_read=0 | alu_result=         0 | mem_data=         0 | wb_reg=0
       WB: regwrite=1 | write_reg=0 | write_data=         0

T=525000 | PC=000000cc | IR=00000000 | NPC=000000d0
       ID: control=100001100 | rs=0 rt=0 rd=0
       EX: ALUres=         0 | zero=1 | write_reg=0
       MEM: mem_read=0 | alu_result=         0 | mem_data=         0 | wb_reg=0
       WB: regwrite=1 | write_reg=0 | write_data=         0

T=535000 | PC=000000d0 | IR=00000000 | NPC=000000d4
       ID: control=100001100 | rs=0 rt=0 rd=0
       EX: ALUres=         0 | zero=1 | write_reg=0
       MEM: mem_read=0 | alu_result=         0 | mem_data=         0 | wb_reg=0
       WB: regwrite=1 | write_reg=0 | write_data=         0

T=545000 | PC=000000d4 | IR=00000000 | NPC=000000d8
       ID: control=100001100 | rs=0 rt=0 rd=0
       EX: ALUres=         0 | zero=1 | write_reg=0
       MEM: mem_read=0 | alu_result=         0 | mem_data=         0 | wb_reg=0
       WB: regwrite=1 | write_reg=0 | write_data=         0

T=555000 | PC=000000d8 | IR=00000000 | NPC=000000dc
       ID: control=100001100 | rs=0 rt=0 rd=0
       EX: ALUres=         0 | zero=1 | write_reg=0
       MEM: mem_read=0 | alu_result=         0 | mem_data=         0 | wb_reg=0
       WB: regwrite=1 | write_reg=0 | write_data=         0

T=565000 | PC=000000dc | IR=00000000 | NPC=000000e0
       ID: control=100001100 | rs=0 rt=0 rd=0
       EX: ALUres=         0 | zero=1 | write_reg=0
       MEM: mem_read=0 | alu_result=         0 | mem_data=         0 | wb_reg=0
       WB: regwrite=1 | write_reg=0 | write_data=         0

T=575000 | PC=000000e0 | IR=00000000 | NPC=000000e4
       ID: control=100001100 | rs=0 rt=0 rd=0
       EX: ALUres=         0 | zero=1 | write_reg=0
       MEM: mem_read=0 | alu_result=         0 | mem_data=         0 | wb_reg=0
       WB: regwrite=1 | write_reg=0 | write_data=         0

T=585000 | PC=000000e4 | IR=00000000 | NPC=000000e8
       ID: control=100001100 | rs=0 rt=0 rd=0
       EX: ALUres=         0 | zero=1 | write_reg=0
       MEM: mem_read=0 | alu_result=         0 | mem_data=         0 | wb_reg=0
       WB: regwrite=1 | write_reg=0 | write_data=         0

T=595000 | PC=000000e8 | IR=00000000 | NPC=000000ec
       ID: control=100001100 | rs=0 rt=0 rd=0
       EX: ALUres=         0 | zero=1 | write_reg=0
       MEM: mem_read=0 | alu_result=         0 | mem_data=         0 | wb_reg=0
       WB: regwrite=1 | write_reg=0 | write_data=         0

T=605000 | PC=000000ec | IR=00000000 | NPC=000000f0
       ID: control=100001100 | rs=0 rt=0 rd=0
       EX: ALUres=         0 | zero=1 | write_reg=0
       MEM: mem_read=0 | alu_result=         0 | mem_data=         0 | wb_reg=0
       WB: regwrite=1 | write_reg=0 | write_data=         0

T=615000 | PC=000000f0 | IR=00000000 | NPC=000000f4
       ID: control=100001100 | rs=0 rt=0 rd=0
       EX: ALUres=         0 | zero=1 | write_reg=0
       MEM: mem_read=0 | alu_result=         0 | mem_data=         0 | wb_reg=0
       WB: regwrite=1 | write_reg=0 | write_data=         0

T=625000 | PC=000000f4 | IR=00000000 | NPC=000000f8
       ID: control=100001100 | rs=0 rt=0 rd=0
       EX: ALUres=         0 | zero=1 | write_reg=0
       MEM: mem_read=0 | alu_result=         0 | mem_data=         0 | wb_reg=0
       WB: regwrite=1 | write_reg=0 | write_data=         0

T=635000 | PC=000000f8 | IR=00000000 | NPC=000000fc
       ID: control=100001100 | rs=0 rt=0 rd=0
       EX: ALUres=         0 | zero=1 | write_reg=0
       MEM: mem_read=0 | alu_result=         0 | mem_data=         0 | wb_reg=0
       WB: regwrite=1 | write_reg=0 | write_data=         0

T=645000 | PC=000000fc | IR=00000000 | NPC=00000100
       ID: control=100001100 | rs=0 rt=0 rd=0
       EX: ALUres=         0 | zero=1 | write_reg=0
       MEM: mem_read=0 | alu_result=         0 | mem_data=         0 | wb_reg=0
       WB: regwrite=1 | write_reg=0 | write_data=         0

T=655000 | PC=00000100 | IR=00000000 | NPC=00000104
       ID: control=100001100 | rs=0 rt=0 rd=0
       EX: ALUres=         0 | zero=1 | write_reg=0
       MEM: mem_read=0 | alu_result=         0 | mem_data=         0 | wb_reg=0
       WB: regwrite=1 | write_reg=0 | write_data=         0

T=665000 | PC=00000104 | IR=00000000 | NPC=00000108
       ID: control=100001100 | rs=0 rt=0 rd=0
       EX: ALUres=         0 | zero=1 | write_reg=0
       MEM: mem_read=0 | alu_result=         0 | mem_data=         0 | wb_reg=0
       WB: regwrite=1 | write_reg=0 | write_data=         0

T=675000 | PC=00000108 | IR=00000000 | NPC=0000010c
       ID: control=100001100 | rs=0 rt=0 rd=0
       EX: ALUres=         0 | zero=1 | write_reg=0
       MEM: mem_read=0 | alu_result=         0 | mem_data=         0 | wb_reg=0
       WB: regwrite=1 | write_reg=0 | write_data=         0

T=685000 | PC=0000010c | IR=00000000 | NPC=00000110
       ID: control=100001100 | rs=0 rt=0 rd=0
       EX: ALUres=         0 | zero=1 | write_reg=0
       MEM: mem_read=0 | alu_result=         0 | mem_data=         0 | wb_reg=0
       WB: regwrite=1 | write_reg=0 | write_data=         0

T=695000 | PC=00000110 | IR=00000000 | NPC=00000114
       ID: control=100001100 | rs=0 rt=0 rd=0
       EX: ALUres=         0 | zero=1 | write_reg=0
       MEM: mem_read=0 | alu_result=         0 | mem_data=         0 | wb_reg=0
       WB: regwrite=1 | write_reg=0 | write_data=         0

T=705000 | PC=00000114 | IR=00000000 | NPC=00000118
       ID: control=100001100 | rs=0 rt=0 rd=0
       EX: ALUres=         0 | zero=1 | write_reg=0
       MEM: mem_read=0 | alu_result=         0 | mem_data=         0 | wb_reg=0
       WB: regwrite=1 | write_reg=0 | write_data=         0

T=715000 | PC=00000118 | IR=00000000 | NPC=0000011c
       ID: control=100001100 | rs=0 rt=0 rd=0
       EX: ALUres=         0 | zero=1 | write_reg=0
       MEM: mem_read=0 | alu_result=         0 | mem_data=         0 | wb_reg=0
       WB: regwrite=1 | write_reg=0 | write_data=         0

T=725000 | PC=0000011c | IR=00000000 | NPC=00000120
       ID: control=100001100 | rs=0 rt=0 rd=0
       EX: ALUres=         0 | zero=1 | write_reg=0
       MEM: mem_read=0 | alu_result=         0 | mem_data=         0 | wb_reg=0
       WB: regwrite=1 | write_reg=0 | write_data=         0

T=735000 | PC=00000120 | IR=00000000 | NPC=00000124
       ID: control=100001100 | rs=0 rt=0 rd=0
       EX: ALUres=         0 | zero=1 | write_reg=0
       MEM: mem_read=0 | alu_result=         0 | mem_data=         0 | wb_reg=0
       WB: regwrite=1 | write_reg=0 | write_data=         0

T=745000 | PC=00000124 | IR=00000000 | NPC=00000128
       ID: control=100001100 | rs=0 rt=0 rd=0
       EX: ALUres=         0 | zero=1 | write_reg=0
       MEM: mem_read=0 | alu_result=         0 | mem_data=         0 | wb_reg=0
       WB: regwrite=1 | write_reg=0 | write_data=         0

T=755000 | PC=00000128 | IR=00000000 | NPC=0000012c
       ID: control=100001100 | rs=0 rt=0 rd=0
       EX: ALUres=         0 | zero=1 | write_reg=0
       MEM: mem_read=0 | alu_result=         0 | mem_data=         0 | wb_reg=0
       WB: regwrite=1 | write_reg=0 | write_data=         0

T=765000 | PC=0000012c | IR=00000000 | NPC=00000130
       ID: control=100001100 | rs=0 rt=0 rd=0
       EX: ALUres=         0 | zero=1 | write_reg=0
       MEM: mem_read=0 | alu_result=         0 | mem_data=         0 | wb_reg=0
       WB: regwrite=1 | write_reg=0 | write_data=         0

T=775000 | PC=00000130 | IR=00000000 | NPC=00000134
       ID: control=100001100 | rs=0 rt=0 rd=0
       EX: ALUres=         0 | zero=1 | write_reg=0
       MEM: mem_read=0 | alu_result=         0 | mem_data=         0 | wb_reg=0
       WB: regwrite=1 | write_reg=0 | write_data=         0

T=785000 | PC=00000134 | IR=00000000 | NPC=00000138
       ID: control=100001100 | rs=0 rt=0 rd=0
       EX: ALUres=         0 | zero=1 | write_reg=0
       MEM: mem_read=0 | alu_result=         0 | mem_data=         0 | wb_reg=0
       WB: regwrite=1 | write_reg=0 | write_data=         0

T=795000 | PC=00000138 | IR=00000000 | NPC=0000013c
       ID: control=100001100 | rs=0 rt=0 rd=0
       EX: ALUres=         0 | zero=1 | write_reg=0
       MEM: mem_read=0 | alu_result=         0 | mem_data=         0 | wb_reg=0
       WB: regwrite=1 | write_reg=0 | write_data=         0

T=805000 | PC=0000013c | IR=00000000 | NPC=00000140
       ID: control=100001100 | rs=0 rt=0 rd=0
       EX: ALUres=         0 | zero=1 | write_reg=0
       MEM: mem_read=0 | alu_result=         0 | mem_data=         0 | wb_reg=0
       WB: regwrite=1 | write_reg=0 | write_data=         0

T=815000 | PC=00000140 | IR=00000000 | NPC=00000144
       ID: control=100001100 | rs=0 rt=0 rd=0
       EX: ALUres=         0 | zero=1 | write_reg=0
       MEM: mem_read=0 | alu_result=         0 | mem_data=         0 | wb_reg=0
       WB: regwrite=1 | write_reg=0 | write_data=         0

T=825000 | PC=00000144 | IR=00000000 | NPC=00000148
       ID: control=100001100 | rs=0 rt=0 rd=0
       EX: ALUres=         0 | zero=1 | write_reg=0
       MEM: mem_read=0 | alu_result=         0 | mem_data=         0 | wb_reg=0
       WB: regwrite=1 | write_reg=0 | write_data=         0

T=835000 | PC=00000148 | IR=00000000 | NPC=0000014c
       ID: control=100001100 | rs=0 rt=0 rd=0
       EX: ALUres=         0 | zero=1 | write_reg=0
       MEM: mem_read=0 | alu_result=         0 | mem_data=         0 | wb_reg=0
       WB: regwrite=1 | write_reg=0 | write_data=         0

T=845000 | PC=0000014c | IR=00000000 | NPC=00000150
       ID: control=100001100 | rs=0 rt=0 rd=0
       EX: ALUres=         0 | zero=1 | write_reg=0
       MEM: mem_read=0 | alu_result=         0 | mem_data=         0 | wb_reg=0
       WB: regwrite=1 | write_reg=0 | write_data=         0

T=855000 | PC=00000150 | IR=00000000 | NPC=00000154
       ID: control=100001100 | rs=0 rt=0 rd=0
       EX: ALUres=         0 | zero=1 | write_reg=0
       MEM: mem_read=0 | alu_result=         0 | mem_data=         0 | wb_reg=0
       WB: regwrite=1 | write_reg=0 | write_data=         0

T=865000 | PC=00000154 | IR=00000000 | NPC=00000158
       ID: control=100001100 | rs=0 rt=0 rd=0
       EX: ALUres=         0 | zero=1 | write_reg=0
       MEM: mem_read=0 | alu_result=         0 | mem_data=         0 | wb_reg=0
       WB: regwrite=1 | write_reg=0 | write_data=         0

T=875000 | PC=00000158 | IR=00000000 | NPC=0000015c
       ID: control=100001100 | rs=0 rt=0 rd=0
       EX: ALUres=         0 | zero=1 | write_reg=0
       MEM: mem_read=0 | alu_result=         0 | mem_data=         0 | wb_reg=0
       WB: regwrite=1 | write_reg=0 | write_data=         0

T=885000 | PC=0000015c | IR=00000000 | NPC=00000160
       ID: control=100001100 | rs=0 rt=0 rd=0
       EX: ALUres=         0 | zero=1 | write_reg=0
       MEM: mem_read=0 | alu_result=         0 | mem_data=         0 | wb_reg=0
       WB: regwrite=1 | write_reg=0 | write_data=         0

T=895000 | PC=00000160 | IR=00000000 | NPC=00000164
       ID: control=100001100 | rs=0 rt=0 rd=0
       EX: ALUres=         0 | zero=1 | write_reg=0
       MEM: mem_read=0 | alu_result=         0 | mem_data=         0 | wb_reg=0
       WB: regwrite=1 | write_reg=0 | write_data=         0

T=905000 | PC=00000164 | IR=00000000 | NPC=00000168
       ID: control=100001100 | rs=0 rt=0 rd=0
       EX: ALUres=         0 | zero=1 | write_reg=0
       MEM: mem_read=0 | alu_result=         0 | mem_data=         0 | wb_reg=0
       WB: regwrite=1 | write_reg=0 | write_data=         0

T=915000 | PC=00000168 | IR=00000000 | NPC=0000016c
       ID: control=100001100 | rs=0 rt=0 rd=0
       EX: ALUres=         0 | zero=1 | write_reg=0
       MEM: mem_read=0 | alu_result=         0 | mem_data=         0 | wb_reg=0
       WB: regwrite=1 | write_reg=0 | write_data=         0

T=925000 | PC=0000016c | IR=00000000 | NPC=00000170
       ID: control=100001100 | rs=0 rt=0 rd=0
       EX: ALUres=         0 | zero=1 | write_reg=0
       MEM: mem_read=0 | alu_result=         0 | mem_data=         0 | wb_reg=0
       WB: regwrite=1 | write_reg=0 | write_data=         0

T=935000 | PC=00000170 | IR=00000000 | NPC=00000174
       ID: control=100001100 | rs=0 rt=0 rd=0
       EX: ALUres=         0 | zero=1 | write_reg=0
       MEM: mem_read=0 | alu_result=         0 | mem_data=         0 | wb_reg=0
       WB: regwrite=1 | write_reg=0 | write_data=         0

T=945000 | PC=00000174 | IR=00000000 | NPC=00000178
       ID: control=100001100 | rs=0 rt=0 rd=0
       EX: ALUres=         0 | zero=1 | write_reg=0
       MEM: mem_read=0 | alu_result=         0 | mem_data=         0 | wb_reg=0
       WB: regwrite=1 | write_reg=0 | write_data=         0

T=955000 | PC=00000178 | IR=00000000 | NPC=0000017c
       ID: control=100001100 | rs=0 rt=0 rd=0
       EX: ALUres=         0 | zero=1 | write_reg=0
       MEM: mem_read=0 | alu_result=         0 | mem_data=         0 | wb_reg=0
       WB: regwrite=1 | write_reg=0 | write_data=         0

T=965000 | PC=0000017c | IR=00000000 | NPC=00000180
       ID: control=100001100 | rs=0 rt=0 rd=0
       EX: ALUres=         0 | zero=1 | write_reg=0
       MEM: mem_read=0 | alu_result=         0 | mem_data=         0 | wb_reg=0
       WB: regwrite=1 | write_reg=0 | write_data=         0

T=975000 | PC=00000180 | IR=00000000 | NPC=00000184
       ID: control=100001100 | rs=0 rt=0 rd=0
       EX: ALUres=         0 | zero=1 | write_reg=0
       MEM: mem_read=0 | alu_result=         0 | mem_data=         0 | wb_reg=0
       WB: regwrite=1 | write_reg=0 | write_data=         0

T=9