IF + ID + EX + MEM/4300lab1a.sim/sim_1/behav/xsim/simulate.log
Time resolution is 1 ps
T=5000 | PC=00000000 | IR=00000000 | NPC=00000000
       ID: control=000000000 | rs=0 rt=0 rd=0
       EX: ALUres=         0 zero=0 write_reg=0
       MEM: mem_read=0 | alu_result=         0 | mem_data=         0 | wb_reg= 0

T=15000 | PC=00000000 | IR=00000000 | NPC=00000000
       ID: control=000000000 | rs=0 rt=0 rd=0
       EX: ALUres=         0 zero=0 write_reg=0
       MEM: mem_read=0 | alu_result=         0 | mem_data=         0 | wb_reg= 0

T=25000 | PC=00000004 | IR=002300aa | NPC=00000008
       ID: control=100001100 | rs=1 rt=0 rd=0
       EX: ALUres=         0 zero=1 write_reg=0
       MEM: mem_read=2 | alu_result=         0 | mem_data=         0 | wb_reg= 0

T=35000 | PC=00000008 | IR=10654321 | NPC=0000000c
       ID: control=100001100 | rs=3 rt=3 rd=0
       EX: ALUres=         0 zero=1 write_reg=0
       MEM: mem_read=2 | alu_result=         0 | mem_data=         0 | wb_reg= 0

T=45000 | PC=0000000c | IR=00100022 | NPC=00000010
       ID: control=001000100 | rs=0 rt=5 rd=8
       EX: ALUres=         4 zero=0 write_reg=3
       MEM: mem_read=0 | alu_result=         0 | mem_data=         0 | wb_reg= 0

T=55000 | PC=00000010 | IR=8c123456 | NPC=00000014
       ID: control=100001100 | rs=0 rt=16 rd=0
       EX: ALUres=4294967294 zero=0 write_reg=5
       MEM: mem_read=2 | alu_result=         4 | mem_data=         0 | wb_reg= 3

T=65000 | PC=00000014 | IR=8f123456 | NPC=00000018
       ID: control=110100001 | rs=24 rt=18 rd=6
       EX: ALUres=        16 zero=0 write_reg=16
       MEM: mem_read=3 | alu_result=4294967294 | mem_data=         0 | wb_reg= 5

MEM READ : mem[21] -> 8c123456
T=75000 | PC=00000018 | IR=ad654321 | NPC=0000001c
       ID: control=110100001 | rs=11 rt=18 rd=6
       EX: ALUres=     13398 zero=0 write_reg=18
       MEM: mem_read=3 | alu_result=        16 | mem_data=         0 | wb_reg=16

MEM READ : mem[27] -> 002300aa
T=85000 | PC=0000001c | IR=13012345 | NPC=00000020
       ID: control=000010001 | rs=24 rt=5 rd=8
       EX: ALUres=     13422 zero=0 write_reg=18
       MEM: mem_read=0 | alu_result=     13398 | mem_data=2350003286 | wb_reg=18

T=95000 | PC=00000020 | IR=ac654321 | NPC=00000024
       ID: control=001000100 | rs=3 rt=1 rd=4
       EX: ALUres=     17196 zero=0 write_reg=5
       MEM: mem_read=0 | alu_result=     13422 | mem_data=   2293930 | wb_reg=18

MEM WRITE: mem[75] = 00000005
T=105000 | PC=00000024 | IR=12012345 | NPC=00000028
       ID: control=000010001 | rs=16 rt=5 rd=8
       EX: ALUres=        23 zero=0 write_reg=1
       MEM: mem_read=0 | alu_result=     17196 | mem_data=         0 | wb_reg= 5

T=115000 | PC=00000028 | IR=00000000 | NPC=0000002c
       ID: control=001000100 | rs=0 rt=1 rd=4
       EX: ALUres=     17188 zero=0 write_reg=5
       MEM: mem_read=0 | alu_result=        23 | mem_data=         0 | wb_reg= 1

MEM WRITE: mem[73] = 00000005
T=125000 | PC=0000002c | IR=00000000 | NPC=00000030
       ID: control=100001100 | rs=0 rt=0 rd=0
       EX: ALUres=        15 zero=0 write_reg=1
       MEM: mem_read=2 | alu_result=     17188 | mem_data=         0 | wb_reg= 5

T=135000 | PC=00000030 | IR=00000000 | NPC=00000034
       ID: control=100001100 | rs=0 rt=0 rd=0
       EX: ALUres=         0 zero=1 write_reg=0
       MEM: mem_read=2 | alu_result=        15 | mem_data=         0 | wb_reg= 1

T=145000 | PC=00000034 | IR=00000000 | NPC=00000038
       ID: control=100001100 | rs=0 rt=0 rd=0
       EX: ALUres=         0 zero=1 write_reg=0
       MEM: mem_read=2 | alu_result=         0 | mem_data=         0 | wb_reg= 0

T=155000 | PC=00000038 | IR=00000000 | NPC=0000003c
       ID: control=100001100 | rs=0 rt=0 rd=0
       EX: ALUres=         0 zero=1 write_reg=0
       MEM: mem_read=2 | alu_result=         0 | mem_data=         0 | wb_reg= 0

T=165000 | PC=0000003c | IR=00000000 | NPC=00000040
       ID: control=100001100 | rs=0 rt=0 rd=0
       EX: ALUres=         0 zero=1 write_reg=0
       MEM: mem_read=2 | alu_result=         0 | mem_data=         0 | wb_reg= 0

T=175000 | PC=00000040 | IR=00000000 | NPC=00000044
       ID: control=100001100 | rs=0 rt=0 rd=0
       EX: ALUres=         0 zero=1 write_reg=0
       MEM: mem_read=2 | alu_result=         0 | mem_data=         0 | wb_reg= 0

T=185000 | PC=00000044 | IR=00000000 | NPC=00000048
       ID: control=100001100 | rs=0 rt=0 rd=0
       EX: ALUres=         0 zero=1 write_reg=0
       MEM: mem_read=2 | alu_result=         0 | mem_data=         0 | wb_reg= 0

T=195000 | PC=00000048 | IR=00000000 | NPC=0000004c
       ID: control=100001100 | rs=0 rt=0 rd=0
       EX: ALUres=         0 zero=1 write_reg=0
       MEM: mem_read=2 | alu_result=         0 | mem_data=         0 | wb_reg= 0

T=205000 | PC=0000004c | IR=00000000 | NPC=00000050
       ID: control=100001100 | rs=0 rt=0 rd=0
       EX: ALUres=         0 zero=1 write_reg=0
       MEM: mem_read=2 | alu_result=         0 | mem_data=         0 | wb_reg= 0

$finish called at time : 210 ns : File "C:/Users/admin/Desktop/4203/IF STAGE/4300lab1a.srcs/sources_1/new/pipeline_top_tb.v" Line 67
