IF STAGE/4300lab1a.sim/sim_1/behav/xsim/simulate.log
Time resolution is 1 ps
PC = 0, IF/ID IR = 0x00000000, IF/ID NPC = 0
PC = 0, IF/ID IR = 0x00000000, IF/ID NPC = 0
PC = 4, IF/ID IR = 0xa00000aa, IF/ID NPC = 8
PC = 8, IF/ID IR = 0x10000011, IF/ID NPC = 12
PC = 12, IF/ID IR = 0x20000022, IF/ID NPC = 16
PC = 16, IF/ID IR = 0x30000033, IF/ID NPC = 20
PC = 2, IF/ID IR = 0x40000044, IF/ID NPC = 24
PC = 6, IF/ID IR = 0xa00000aa, IF/ID NPC = 10
PC = 10, IF/ID IR = 0x10000011, IF/ID NPC = 14
PC = 14, IF/ID IR = 0x20000022, IF/ID NPC = 18
PC = 18, IF/ID IR = 0x30000033, IF/ID NPC = 22
PC = 22, IF/ID IR = 0x40000044, IF/ID NPC = 26
PC = 2, IF/ID IR = 0x50000055, IF/ID NPC = 30
PC = 6, IF/ID IR = 0xa00000aa, IF/ID NPC = 10
PC = 10, IF/ID IR = 0x10000011, IF/ID NPC = 14
PC = 14, IF/ID IR = 0x20000022, IF/ID NPC = 18
PC = 18, IF/ID IR = 0x30000033, IF/ID NPC = 22
PC = 22, IF/ID IR = 0x40000044, IF/ID NPC = 26
PC = 2, IF/ID IR = 0x50000055, IF/ID NPC = 30
PC = 6, IF/ID IR = 0xa00000aa, IF/ID NPC = 10
PC = 10, IF/ID IR = 0x10000011, IF/ID NPC = 14
PC = 14, IF/ID IR = 0x20000022, IF/ID NPC = 18
PC = 18, IF/ID IR = 0x30000033, IF/ID NPC = 22
PC = 22, IF/ID IR = 0x40000044, IF/ID NPC = 26
PC = 26, IF/ID IR = 0x50000055, IF/ID NPC = 30
PC = 0, IF/ID IR = 0x00000000, IF/ID NPC = 0
PC = 0, IF/ID IR = 0x00000000, IF/ID NPC = 0
PC = 0, IF/ID IR = 0x00000000, IF/ID NPC = 0
PC = 4, IF/ID IR = 0xa00000aa, IF/ID NPC = 8
PC = 8, IF/ID IR = 0x10000011, IF/ID NPC = 12
$finish called at time : 322 ns : File "C:/Users/admin/Desktop/4203/4300lab1a/4300lab1a.srcs/sim_1/new/tb_if_stage.v" Line 62
